%YAML 1.1
%TAG !u! tag:unity3d.com,2011:
--- !u!1 &2019625329580072649
GameObject:
  m_ObjectHideFlags: 0
  m_CorrespondingSourceObject: {fileID: 0}
  m_PrefabInstance: {fileID: 0}
  m_PrefabAsset: {fileID: 0}
  serializedVersion: 6
  m_Component:
  - component: {fileID: 3052454635510344922}
  - component: {fileID: 6271115071734781676}
  - component: {fileID: 305101857432431125}
  - component: {fileID: 915470978525904519}
  m_Layer: 0
  m_Name: Bulb.001
  m_TagString: Untagged
  m_Icon: {fileID: 0}
  m_NavMeshLayer: 0
  m_StaticEditorFlags: 0
  m_IsActive: 1
--- !u!4 &3052454635510344922
Transform:
  m_ObjectHideFlags: 0
  m_CorrespondingSourceObject: {fileID: 0}
  m_PrefabInstance: {fileID: 0}
  m_PrefabAsset: {fileID: 0}
  m_GameObject: {fileID: 2019625329580072649}
  m_LocalRotation: {x: -0.7069834, y: 0, z: 0, w: 0.7072302}
  m_LocalPosition: {x: -6, y: 0, z: -1}
  m_LocalScale: {x: 100, y: 100, z: 100}
  m_Children:
  - {fileID: 2512607538363174820}
  - {fileID: 3651827995527286847}
  - {fileID: 2878971041072765250}
  - {fileID: 1980095532530579244}
  m_Father: {fileID: 0}
  m_RootOrder: 0
  m_LocalEulerAnglesHint: {x: -89.98, y: 0, z: 0}
--- !u!33 &6271115071734781676
MeshFilter:
  m_ObjectHideFlags: 0
  m_CorrespondingSourceObject: {fileID: 0}
  m_PrefabInstance: {fileID: 0}
  m_PrefabAsset: {fileID: 0}
  m_GameObject: {fileID: 2019625329580072649}
  m_Mesh: {fileID: 1198401103314831591, guid: d2571e1b8215f4e3e9a3a920fd9b43f6, type: 3}
--- !u!23 &305101857432431125
MeshRenderer:
  m_ObjectHideFlags: 0
  m_CorrespondingSourceObject: {fileID: 0}
  m_PrefabInstance: {fileID: 0}
  m_PrefabAsset: {fileID: 0}
  m_GameObject: {fileID: 2019625329580072649}
  m_Enabled: 1
  m_CastShadows: 1
  m_ReceiveShadows: 1
  m_DynamicOccludee: 1
  m_MotionVectors: 1
  m_LightProbeUsage: 1
  m_ReflectionProbeUsage: 1
  m_RenderingLayerMask: 1
  m_RendererPriority: 0
  m_Materials:
  - {fileID: 2100000, guid: 101f3f01fc81046cf80b8dadb832629b, type: 2}
  m_StaticBatchInfo:
    firstSubMesh: 0
    subMeshCount: 0
  m_StaticBatchRoot: {fileID: 0}
  m_ProbeAnchor: {fileID: 0}
  m_LightProbeVolumeOverride: {fileID: 0}
  m_ScaleInLightmap: 1
  m_PreserveUVs: 0
  m_IgnoreNormalsForChartDetection: 0
  m_ImportantGI: 0
  m_StitchLightmapSeams: 1
  m_SelectedEditorRenderState: 3
  m_MinimumChartSize: 4
  m_AutoUVMaxDistance: 0.5
  m_AutoUVMaxAngle: 89
  m_LightmapParameters: {fileID: 0}
  m_SortingLayerID: 0
  m_SortingLayer: 0
  m_SortingOrder: 0
--- !u!114 &915470978525904519
MonoBehaviour:
  m_ObjectHideFlags: 0
  m_CorrespondingSourceObject: {fileID: 0}
  m_PrefabInstance: {fileID: 0}
  m_PrefabAsset: {fileID: 0}
  m_GameObject: {fileID: 2019625329580072649}
  m_Enabled: 1
  m_EditorHideFlags: 0
  m_Script: {fileID: 11500000, guid: 9783986d607e54e6ab949013f5edc29b, type: 3}
  m_Name: 
  m_EditorClassIdentifier: 
  index: -1
  plantDecalSet: {fileID: 11400000, guid: 0c31689c3e92f4cf7af7187d5cfe5fb2, type: 2}
--- !u!1001 &1151255613714283041
PrefabInstance:
  m_ObjectHideFlags: 0
  serializedVersion: 2
  m_Modification:
    m_TransformParent: {fileID: 3052454635510344922}
    m_Modifications:
    - target: {fileID: 2584032779367503890, guid: ac13e7826374d4678b978df75e0c5b1f,
        type: 3}
      propertyPath: m_Name
      value: Decal Object (1)
      objectReference: {fileID: 0}
    - target: {fileID: 4420268565511678494, guid: ac13e7826374d4678b978df75e0c5b1f,
        type: 3}
      propertyPath: m_LocalPosition.x
      value: -0.0015849018
      objectReference: {fileID: 0}
    - target: {fileID: 4420268565511678494, guid: ac13e7826374d4678b978df75e0c5b1f,
        type: 3}
      propertyPath: m_LocalPosition.y
      value: 0.0011514982
      objectReference: {fileID: 0}
    - target: {fileID: 4420268565511678494, guid: ac13e7826374d4678b978df75e0c5b1f,
        type: 3}
      propertyPath: m_LocalPosition.z
      value: 0.0020572788
      objectReference: {fileID: 0}
    - target: {fileID: 4420268565511678494, guid: ac13e7826374d4678b978df75e0c5b1f,
        type: 3}
      propertyPath: m_LocalRotation.x
      value: -0.3300807
      objectReference: {fileID: 0}
    - target: {fileID: 4420268565511678494, guid: ac13e7826374d4678b978df75e0c5b1f,
        type: 3}
      propertyPath: m_LocalRotation.y
      value: -0.23836158
      objectReference: {fileID: 0}
    - target: {fileID: 4420268565511678494, guid: ac13e7826374d4678b978df75e0c5b1f,
        type: 3}
      propertyPath: m_LocalRotation.z
      value: 0.2057783
      objectReference: {fileID: 0}
    - target: {fileID: 4420268565511678494, guid: ac13e7826374d4678b978df75e0c5b1f,
        type: 3}
      propertyPath: m_LocalRotation.w
      value: 0.8898797
      objectReference: {fileID: 0}
    - target: {fileID: 4420268565511678494, guid: ac13e7826374d4678b978df75e0c5b1f,
        type: 3}
      propertyPath: m_RootOrder
      value: 1
      objectReference: {fileID: 0}
    - target: {fileID: 4420268565511678494, guid: ac13e7826374d4678b978df75e0c5b1f,
        type: 3}
      propertyPath: m_LocalEulerAnglesHint.x
      value: -29.299002
      objectReference: {fileID: 0}
    - target: {fileID: 4420268565511678494, guid: ac13e7826374d4678b978df75e0c5b1f,
        type: 3}
      propertyPath: m_LocalEulerAnglesHint.y
      value: -39.958
      objectReference: {fileID: 0}
    - target: {fileID: 4420268565511678494, guid: ac13e7826374d4678b978df75e0c5b1f,
        type: 3}
      propertyPath: m_LocalEulerAnglesHint.z
      value: 36.898003
      objectReference: {fileID: 0}
    - target: {fileID: 4420268565511678494, guid: ac13e7826374d4678b978df75e0c5b1f,
        type: 3}
      propertyPath: m_LocalScale.x
      value: 1
      objectReference: {fileID: 0}
    - target: {fileID: 4420268565511678494, guid: ac13e7826374d4678b978df75e0c5b1f,
        type: 3}
      propertyPath: m_LocalScale.y
      value: 1
      objectReference: {fileID: 0}
    - target: {fileID: 4420268565511678494, guid: ac13e7826374d4678b978df75e0c5b1f,
        type: 3}
      propertyPath: m_LocalScale.z
      value: 1
      objectReference: {fileID: 0}
    m_RemovedComponents: []
  m_SourcePrefab: {fileID: 100100000, guid: ac13e7826374d4678b978df75e0c5b1f, type: 3}
--- !u!4 &3651827995527286847 stripped
Transform:
  m_CorrespondingSourceObject: {fileID: 4420268565511678494, guid: ac13e7826374d4678b978df75e0c5b1f,
    type: 3}
  m_PrefabInstance: {fileID: 1151255613714283041}
  m_PrefabAsset: {fileID: 0}
--- !u!1001 &1919617833375986524
PrefabInstance:
  m_ObjectHideFlags: 0
  serializedVersion: 2
  m_Modification:
    m_TransformParent: {fileID: 3052454635510344922}
    m_Modifications:
    - target: {fileID: 2584032779367503890, guid: ac13e7826374d4678b978df75e0c5b1f,
        type: 3}
      propertyPath: m_Name
      value: Decal Object (2)
      objectReference: {fileID: 0}
    - target: {fileID: 4420268565511678494, guid: ac13e7826374d4678b978df75e0c5b1f,
        type: 3}
      propertyPath: m_LocalPosition.x
      value: 0.0023444986
      objectReference: {fileID: 0}
    - target: {fileID: 4420268565511678494, guid: ac13e7826374d4678b978df75e0c5b1f,
        type: 3}
      propertyPath: m_LocalPosition.y
      value: -0.0007617593
      objectReference: {fileID: 0}
    - target: {fileID: 4420268565511678494, guid: ac13e7826374d4678b978df75e0c5b1f,
        type: 3}
      propertyPath: m_LocalPosition.z
      value: 0.00084643374
      objectReference: {fileID: 0}
    - target: {fileID: 4420268565511678494, guid: ac13e7826374d4678b978df75e0c5b1f,
        type: 3}
      propertyPath: m_LocalRotation.x
      value: -0.18979605
      objectReference: {fileID: 0}
    - target: {fileID: 4420268565511678494, guid: ac13e7826374d4678b978df75e0c5b1f,
        type: 3}
      propertyPath: m_LocalRotation.y
      value: 0.63700604
      objectReference: {fileID: 0}
    - target: {fileID: 4420268565511678494, guid: ac13e7826374d4678b978df75e0c5b1f,
        type: 3}
      propertyPath: m_LocalRotation.z
      value: -0.39095673
      objectReference: {fileID: 0}
    - target: {fileID: 4420268565511678494, guid: ac13e7826374d4678b978df75e0c5b1f,
        type: 3}
      propertyPath: m_LocalRotation.w
      value: 0.63667387
      objectReference: {fileID: 0}
    - target: {fileID: 4420268565511678494, guid: ac13e7826374d4678b978df75e0c5b1f,
        type: 3}
      propertyPath: m_RootOrder
      value: 2
      objectReference: {fileID: 0}
    - target: {fileID: 4420268565511678494, guid: ac13e7826374d4678b978df75e0c5b1f,
        type: 3}
      propertyPath: m_LocalEulerAnglesHint.x
      value: 14.857
      objectReference: {fileID: 0}
    - target: {fileID: 4420268565511678494, guid: ac13e7826374d4678b978df75e0c5b1f,
        type: 3}
      propertyPath: m_LocalEulerAnglesHint.y
      value: 83.083
      objectReference: {fileID: 0}
    - target: {fileID: 4420268565511678494, guid: ac13e7826374d4678b978df75e0c5b1f,
        type: 3}
      propertyPath: m_LocalEulerAnglesHint.z
      value: -49.925003
      objectReference: {fileID: 0}
    - target: {fileID: 4420268565511678494, guid: ac13e7826374d4678b978df75e0c5b1f,
        type: 3}
      propertyPath: m_LocalScale.x
      value: 1
      objectReference: {fileID: 0}
    - target: {fileID: 4420268565511678494, guid: ac13e7826374d4678b978df75e0c5b1f,
        type: 3}
      propertyPath: m_LocalScale.y
      value: 1
      objectReference: {fileID: 0}
    - target: {fileID: 4420268565511678494, guid: ac13e7826374d4678b978df75e0c5b1f,
        type: 3}
      propertyPath: m_LocalScale.z
      value: 1
      objectReference: {fileID: 0}
    m_RemovedComponents: []
  m_SourcePrefab: {fileID: 100100000, guid: ac13e7826374d4678b978df75e0c5b1f, type: 3}
--- !u!4 &2878971041072765250 stripped
Transform:
  m_CorrespondingSourceObject: {fileID: 4420268565511678494, guid: ac13e7826374d4678b978df75e0c5b1f,
    type: 3}
  m_PrefabInstance: {fileID: 1919617833375986524}
  m_PrefabAsset: {fileID: 0}
--- !u!1001 &2272455141736916410
PrefabInstance:
  m_ObjectHideFlags: 0
  serializedVersion: 2
  m_Modification:
    m_TransformParent: {fileID: 3052454635510344922}
    m_Modifications:
    - target: {fileID: 2584032779367503890, guid: ac13e7826374d4678b978df75e0c5b1f,
        type: 3}
      propertyPath: m_Name
      value: Decal Object
      objectReference: {fileID: 0}
    - target: {fileID: 4420268565511678494, guid: ac13e7826374d4678b978df75e0c5b1f,
        type: 3}
      propertyPath: m_LocalPosition.x
      value: 0.0000000047683715
      objectReference: {fileID: 0}
    - target: {fileID: 4420268565511678494, guid: ac13e7826374d4678b978df75e0c5b1f,
        type: 3}
      propertyPath: m_LocalPosition.y
      value: -0.000000001490116
      objectReference: {fileID: 0}
    - target: {fileID: 4420268565511678494, guid: ac13e7826374d4678b978df75e0c5b1f,
        type: 3}
      propertyPath: m_LocalPosition.z
      value: 0.0033684624
      objectReference: {fileID: 0}
    - target: {fileID: 4420268565511678494, guid: ac13e7826374d4678b978df75e0c5b1f,
        type: 3}
      propertyPath: m_LocalRotation.x
      value: -0.0051898365
      objectReference: {fileID: 0}
    - target: {fileID: 4420268565511678494, guid: ac13e7826374d4678b978df75e0c5b1f,
        type: 3}
      propertyPath: m_LocalRotation.y
      value: 0.008814269
      objectReference: {fileID: 0}
    - target: {fileID: 4420268565511678494, guid: ac13e7826374d4678b978df75e0c5b1f,
        type: 3}
      propertyPath: m_LocalRotation.z
      value: -0.13611124
      objectReference: {fileID: 0}
    - target: {fileID: 4420268565511678494, guid: ac13e7826374d4678b978df75e0c5b1f,
        type: 3}
      propertyPath: m_LocalRotation.w
      value: 0.99064076
      objectReference: {fileID: 0}
    - target: {fileID: 4420268565511678494, guid: ac13e7826374d4678b978df75e0c5b1f,
        type: 3}
      propertyPath: m_RootOrder
      value: 0
      objectReference: {fileID: 0}
    - target: {fileID: 4420268565511678494, guid: ac13e7826374d4678b978df75e0c5b1f,
        type: 3}
      propertyPath: m_LocalEulerAnglesHint.x
      value: -0.45200002
      objectReference: {fileID: 0}
    - target: {fileID: 4420268565511678494, guid: ac13e7826374d4678b978df75e0c5b1f,
        type: 3}
      propertyPath: m_LocalEulerAnglesHint.y
      value: 1.082
      objectReference: {fileID: 0}
    - target: {fileID: 4420268565511678494, guid: ac13e7826374d4678b978df75e0c5b1f,
        type: 3}
      propertyPath: m_LocalEulerAnglesHint.z
      value: -15.651001
      objectReference: {fileID: 0}
    - target: {fileID: 4420268565511678494, guid: ac13e7826374d4678b978df75e0c5b1f,
        type: 3}
      propertyPath: m_LocalScale.x
      value: 1
      objectReference: {fileID: 0}
    - target: {fileID: 4420268565511678494, guid: ac13e7826374d4678b978df75e0c5b1f,
        type: 3}
      propertyPath: m_LocalScale.y
      value: 1
      objectReference: {fileID: 0}
    - target: {fileID: 4420268565511678494, guid: ac13e7826374d4678b978df75e0c5b1f,
        type: 3}
      propertyPath: m_LocalScale.z
      value: 1
      objectReference: {fileID: 0}
    m_RemovedComponents: []
  m_SourcePrefab: {fileID: 100100000, guid: ac13e7826374d4678b978df75e0c5b1f, type: 3}
--- !u!4 &2512607538363174820 stripped
Transform:
  m_CorrespondingSourceObject: {fileID: 4420268565511678494, guid: ac13e7826374d4678b978df75e0c5b1f,
    type: 3}
  m_PrefabInstance: {fileID: 2272455141736916410}
  m_PrefabAsset: {fileID: 0}
--- !u!1001 &2750930480549633330
PrefabInstance:
  m_ObjectHideFlags: 0
  serializedVersion: 2
  m_Modification:
    m_TransformParent: {fileID: 3052454635510344922}
    m_Modifications:
    - target: {fileID: 2584032779367503890, guid: ac13e7826374d4678b978df75e0c5b1f,
        type: 3}
      propertyPath: m_Name
      value: Decal Object (3)
      objectReference: {fileID: 0}
    - target: {fileID: 4420268565511678494, guid: ac13e7826374d4678b978df75e0c5b1f,
        type: 3}
      propertyPath: m_LocalPosition.x
      value: 0.0000000047684
      objectReference: {fileID: 0}
    - target: {fileID: 4420268565511678494, guid: ac13e7826374d4678b978df75e0c5b1f,
        type: 3}
      propertyPath: m_LocalPosition.y
      value: -0.0026249
      objectReference: {fileID: 0}
    - target: {fileID: 4420268565511678494, guid: ac13e7826374d4678b978df75e0c5b1f,
        type: 3}
      propertyPath: m_LocalPosition.z
      value: 0.00084646
      objectReference: {fileID: 0}
    - target: {fileID: 4420268565511678494, guid: ac13e7826374d4678b978df75e0c5b1f,
        type: 3}
      propertyPath: m_LocalRotation.x
      value: 0
      objectReference: {fileID: 0}
    - target: {fileID: 4420268565511678494, guid: ac13e7826374d4678b978df75e0c5b1f,
        type: 3}
      propertyPath: m_LocalRotation.y
      value: 0
      objectReference: {fileID: 0}
    - target: {fileID: 4420268565511678494, guid: ac13e7826374d4678b978df75e0c5b1f,
        type: 3}
      propertyPath: m_LocalRotation.z
      value: 0
      objectReference: {fileID: 0}
    - target: {fileID: 4420268565511678494, guid: ac13e7826374d4678b978df75e0c5b1f,
        type: 3}
      propertyPath: m_LocalRotation.w
      value: 1
      objectReference: {fileID: 0}
    - target: {fileID: 4420268565511678494, guid: ac13e7826374d4678b978df75e0c5b1f,
        type: 3}
      propertyPath: m_RootOrder
      value: 3
      objectReference: {fileID: 0}
    - target: {fileID: 4420268565511678494, guid: ac13e7826374d4678b978df75e0c5b1f,
        type: 3}
      propertyPath: m_LocalEulerAnglesHint.x
      value: 0
      objectReference: {fileID: 0}
    - target: {fileID: 4420268565511678494, guid: ac13e7826374d4678b978df75e0c5b1f,
        type: 3}
      propertyPath: m_LocalEulerAnglesHint.y
      value: 0
      objectReference: {fileID: 0}
    - target: {fileID: 4420268565511678494, guid: ac13e7826374d4678b978df75e0c5b1f,
        type: 3}
      propertyPath: m_LocalEulerAnglesHint.z
      value: 0
      objectReference: {fileID: 0}
    - target: {fileID: 4420268565511678494, guid: ac13e7826374d4678b978df75e0c5b1f,
        type: 3}
      propertyPath: m_LocalScale.x
      value: 1
      objectReference: {fileID: 0}
    - target: {fileID: 4420268565511678494, guid: ac13e7826374d4678b978df75e0c5b1f,
        type: 3}
      propertyPath: m_LocalScale.y
      value: 1
      objectReference: {fileID: 0}
    - target: {fileID: 4420268565511678494, guid: ac13e7826374d4678b978df75e0c5b1f,
        type: 3}
      propertyPath: m_LocalScale.z
      value: 1
      objectReference: {fileID: 0}
    m_RemovedComponents: []
  m_SourcePrefab: {fileID: 100100000, guid: ac13e7826374d4678b978df75e0c5b1f, type: 3}
--- !u!4 &1980095532530579244 stripped
Transform:
  m_CorrespondingSourceObject: {fileID: 4420268565511678494, guid: ac13e7826374d4678b978df75e0c5b1f,
    type: 3}
  m_PrefabInstance: {fileID: 2750930480549633330}
  m_PrefabAsset: {fileID: 0}
